bannerName,bannerPath
ban1,F:\test_jmx\params\banner\1.png
ban2,F:\test_jmx\params\banner\2.png
ban3,F:\test_jmx\params\banner\3.png
ban4,F:\test_jmx\params\banner\4.png
ban5,F:\test_jmx\params\banner\5.png
ban6,F:\test_jmx\params\banner\6.png
ban7,F:\test_jmx\params\banner\7.png